Poisson Regression – PSY504 Lab Assignments
…
data_pos <- data_pos |> 
  mutate(sex = factor(ifelse(sex == -1, "Male", 
                             ifelse(sex == 1, "Female", NA)), 
                      levels = c("Male", "Female")),
         reliten_recode = factor(reliten, levels = 1:5))

Missingness

Code

data_pos %>%
  dplyr::select(reliten, reliten_recode)

# A tibble: 2,044 × 2
   reliten reliten_recode
     <dbl> <fct>         
 1       1 1             
 2       4 4             
 3       1 1             
 4       1 1             
 5       1 1             
 6       4 4             
 7       3 3             
 8       1 1             
 9       1 1             
10       1 1             
# ℹ 2,034 more rows
…
